{
    "hashes": {
        "appinfo\/info.xml": "49b63ad2f92115b37d8575fa655d75fdba8b94945638753ff2f59e98f46443e2f16b18d581ff49c101f46ea6653bf15dd9e761d1f2af1e30f2437311c2bca3d4",
        "composer\/autoload.php": "de35b39fee295d4ebfea9ff4da9732152ca9c046cc887083b9c9bdb7a7542b8e268ee1810dd898852493ee5d35237c615b8b5529d7b00bbb50d5e2fb27fd0d4d",
        "composer\/composer.json": "51ff61b70e2d97279d8867044fe2243d1440a29b5acfd6378c670d5b24d86805e9c1ff6e8181f172d93204ff63c020fd56d0fb72961094a5539a4fea66546bfd",
        "composer\/composer.lock": "aba0413aa705be0d0570c496a43249c551836824e7a2b4673b51838fe0d9f425ddd07b6c4b95aa74ca549f58e90f2a7d78b51a2a3080749a5dc2e4a46d04fd1e",
        "composer\/composer\/ClassLoader.php": "866e8cbde808b4e7774c5d9e2bdda44e84ff9bc84268785aff1a75277bd7918dc26ceeb27732718c9ea93756777ec0d16c09c15f9c1179be3cbb410c7914d295",
        "composer\/composer\/InstalledVersions.php": "5ec7d1dcf913dd2026fc8881e90d43cfdae307bfc879b1f3e279217a41308b97ba9b2ad6b093a3a33b9f5cf0b2c86d9d5f5aceca7734c3b6def7e1a973a08f8a",
        "composer\/composer\/LICENSE": "f3bb64009f41a425df5a9bbab53490f0eb9b74fa8d6aaa2f57efb928edc4ffff330260666edeaa04a91fed708c3663371cf01b284f3a08d6698aaef7a23f355a",
        "composer\/composer\/autoload_classmap.php": "a87d05f5ed5f1d5b24b5e87b33e0d7d24194585e20a94b6b8ec47e9e18ce8c529ee151d2af79feb04ae7f9b0a2f02bd02dd0fade94c3da66119d1db26988d433",
        "composer\/composer\/autoload_namespaces.php": "5b2571f3b573a778d362b8c7412787b4084c7f27d3f5bba1585243f3ccbb0b9054e68522a22a1ad59ec11097b03a0e343865c0188c65b25f0a97e24e120339d1",
        "composer\/composer\/autoload_psr4.php": "ff830f716b234b299da962d0b9245d327a6f79ab8271f43361992ff00bb562d01a0f5dbc9003fd5063bea3e400d21ac0399fbb60927d8e2aad8a200844a560c5",
        "composer\/composer\/autoload_real.php": "d28f48e9c658b4571d63bd422420f52878e5d770c175100e30237a71ca3451108667f298dc328568b510c660079ecf52eaaa00b4248000a22114113580a6ce31",
        "composer\/composer\/autoload_static.php": "4146ef4267a4861461cc0a00d9d9a2aed3c0aa5d627146c2473ba57c6b4353414d80dfbf0939d1b4a57823bdea645b4ac06e26bcc3c2e1fd40f54cacece49ced",
        "composer\/composer\/installed.json": "0a3ed51f953eb945b970a8eb21957ca2beee4669c7d0d9be97b8259c391b60688f8abb78d4b1fae5e4e2ea5e3d8747f4d35f066a2605e9a76f5b45ec3f1da357",
        "composer\/composer\/installed.php": "2d8cedbe3fbe7c6f1413e4c2924450336682f9140eeffc08c5088e3cd49abcafdf83465fd4c461d95b5d319cdab325c90fe3c7f6a561f006181f2a2b4b83fecc",
        "l10n\/bg.js": "896a48a1575ac942b99e4ff1c9f9f84f94a71eafefc061b5f7b5ac7b117179c555e7138c5aeeab2725e0b109e3b336591baa196a174b070b2f126b005fd9dc11",
        "l10n\/bg.json": "dfdb06fbd93a655bc250f5dfc49b6926400dced07d90391e8827603a4bd793a7a11200fddb43a8fe3b845194e2661706b5f14acdf663b6e6bc1c4faacc8d98f4",
        "l10n\/ca.js": "7fc3a2506dbe35a9a81b4539a6afff3759c923dab8e63389f9b84006a58fba4718360b238020fd1c7cd5fa3b4beb5939666a0985547d9b5b20d54836ebe8f67f",
        "l10n\/ca.json": "94cb5d2e3d479f888c4c4e20316c7f4477438e24f7e19ffe60e0244ca201ec4f7c0c5a3060d76a3e6a26ad337adf625b7f8d4a4a36a307c749ec035097371b16",
        "l10n\/cs.js": "e53da7b8a762f99bae97c1e9d54b7142010f05637bbbe531a61a6b504c59c0ba1f53098483bd9ab364e4d1df9ea59cdea4e2f05816a6a03f10ffbc1c2aae6752",
        "l10n\/cs.json": "867f04cd7127006aae17b0538541501b00811a512229dadf29af3f4566e9141b7959f4fb538ba2b7110958b0b94059d263bc866a464bec90b0aa2512cf7c2a52",
        "l10n\/da.js": "2bc07c70dbbc5fca2716fea940117ed5852424eb246465c62081f5c0808452f6daad9c70c2f937ea5818fd93ae0947aaa938359b817b06d1f69351a9cc6042f8",
        "l10n\/da.json": "483a2c0b280f9c0cfde144b17186f86a862f5362733b78f6e124e759129827cbe2f7472d730985279de02a9181c1fbdb6aae1f1196081b8f366ce518fa165538",
        "l10n\/de.js": "5233642f237ad5cf03240085cd3da3e63e98fa5acdc3fd2e6a24c355259c5d5424ed69e9f034b4957909fa47b33ec62126ccdeadffeaa977d351fd36f3fac812",
        "l10n\/de.json": "ee1ba5ada36227324c504b12a4e66b145592ab6e08e8efe670a01d2dc1d5451e4428ee5de8a5fe837a07c115ad067013404466ce9a49f54b3323bf3b34f42c08",
        "l10n\/de_DE.js": "48d6b5adb5bab6226764d65ff8484137b617dfcd5992583ac73c613115e6c7a4c28bd3123fcbdc2a77874555578cc24dc440bcf2bab8746235733968590d9e9b",
        "l10n\/de_DE.json": "35dc4350ecfe38040dbf3eac88e83db2dd7b10f03a5388d94b573b53ba044785887acdb9438d7fff407c755336ebbec67e37c6105fc7ba69fdf155f8c2223a4b",
        "l10n\/el.js": "9c3310f9ba7a79e8bacaf3db0fa3196f599846ef8d00a0773104b5ad41ab5af0ffc079a4e8326db70fd7a60879e45e6ef3d01ab20f0cefa4f17a031beab8de70",
        "l10n\/el.json": "bb4feeb96d15e7fdb709b3f2950ae9b1029357c5ae0f3d7a3ed1902cd2ee77bf6b6b996885030775e09ebcf8fdd75492d9308ec16a2d8c90e65deea372283cda",
        "l10n\/en_GB.js": "ce7c21114c6f0eaf0fa6b602779fb34344857813a695f97e830df4ee04a72d26282d9afdfe6881cf0d09dcc20e20c24f1616136c87a8631f470dbc5089782526",
        "l10n\/en_GB.json": "f06c6bcbaf15a249af70c4b57cad9654355773a22606d9b1d1dd01dabda05202d3019c42d1e7b26c9b35531ba080ac8948c556ba4cf6682870636253f06c95ee",
        "l10n\/es.js": "da8fc38247c33b571c6b2a814926f074ec62437bc5e9055c6d85fc2bee5bf3562d2f465efb97edf1f500365d8d9d804a7e8e36129f8ec2c551aa86ce7cf859cc",
        "l10n\/es.json": "dbb96700b56e0e6e868014564dc7ce0b064538b5150dbcd3c6c5f16ee2dda1085140caa97caf15abd8877da4e42603801813c1e16706a5893d95d45ac0d7e77a",
        "l10n\/eu.js": "7c9254f6334e25c21ba6f06a3cb36dd3bf5a8849e1c6090bd8120e5ecdf7fc7ec4e6ac7d39be86730330a1c8afe9dfa6ebd8eef998ab044acc91d1ee4dddcb9f",
        "l10n\/eu.json": "f3d1fbba20026e6520a9731181e157b0952a6fee113104c1159ae6fae5cad66be93b1ecef00c884ebd450394894a554169e9fd48e1b26c1e26f9eb11d8bc1ee6",
        "l10n\/fi.js": "5d71b69416d811ac1ed5a89b2fb95d667e70e263ab651c6f1d6a620864844a110af60ea007ad1344d5f4fcf5183b3393d0874d8cfdac08f196175e521e064535",
        "l10n\/fi.json": "8302c86c28114207e743bb3343aef12dd12b488ad984df4a12e1ae5d80241033e9dfbfcd8dc1c937094e8acca68c361936a78d31e015c3a49d052f86ea092e18",
        "l10n\/fr.js": "8b9118f58c216907ea596d9b6a39fb1b7060770c5113e87c82c0ae228ce0e728a51cf4490d9f6e5d293ec990ba3bf2975c7c3a8113b7c7c7f23ba4f5d800ad1e",
        "l10n\/fr.json": "8eb4a43d9a377d6331aa274e89fe093276e6d8abea3b4293a4f8c1399069cafcf7b3ff30c2511374cf5295ed92e4c745a3ca1bafecbf77141bc6335c67b13aee",
        "l10n\/gl.js": "0380b0f02fd354c7b6637c71f8001b09e69231f347317e94bb8ed5a87272e9c812a0449e0a956f29937263ecdc7ae66a92500ec6eaf60924e188aa2a621a9e8d",
        "l10n\/gl.json": "bef06d1ae7760d3ae4f6fe96a05878f05a480979719ba11ce0d00fa522d7009c06a97f104de6a5bab598fa734053614ab3b3ff7f6493e6b12476760f6daf61bb",
        "l10n\/he.js": "bcf79051ea3b4b3743fedbae59904b2ff93c3abad44c218f1ab0cbaa3270d6fefb958739a9ae67124046a6b719a7e0380020b8cc3b244ae385ee39a1bb19cadf",
        "l10n\/he.json": "55918f5dae1270baac2c4c6bacfd06b6daca0ac4e2276d0236b33ad56abe13661a8b804009c97f4440a60e2eb8a8fb34a3a21c9882cb92638de34664cc853931",
        "l10n\/hr.js": "93eedb7ca6329b356cf46759ec88b42e084ae6b7b7d20c5e14cb15577767d149e7f96e3a2378c72eb2138186f8eb1b4b4da31653e2d74f92b3e19cfb8a373448",
        "l10n\/hr.json": "5ad7ee8b39287cb5387f5213b88d0044dc64035d7a1df1f643ebd5177e64c1c9e23587d943efd8ccf66d6450b1f70f4678e2a705cdda6102002d62ce90e537a3",
        "l10n\/hu.js": "40441f1567db65c140f272abfda8f492a6046bfa972eb39ac7fe46d08089882800ba266e80478aa93ef67b69928fa91619121cfc29a817d404f005115edae82c",
        "l10n\/hu.json": "f2c01308e599ba4099532ac7e6be20bbed34110532a06a35c0688794efdd468c3e7f3a180c4e71be592ae21c19c8693caebf47afaa5fb2d00dce986cd1ba842a",
        "l10n\/it.js": "390af46eb10db75adc25197fe8a08fd5dff211b502f6138260d4959789fe282ec606c03c3fc17eccaeaf8a04f688782b7a7cdf707a0c99bf03b4264a9f90cc4a",
        "l10n\/it.json": "eaf000f883a12deb7be2822f11e56c75cbb69ab683dd128c2d1c8969e16ef9a4d2eef0a1c0f691e560557c8153a324b7527e90719f8c7d4ed91b1ea348f02203",
        "l10n\/ja.js": "b002eed6db6f6bcced30c7f137b5a22816dc11adf503f29765c3d9fe267e0646f3e9b9033dc3759c780d5d3e04b2e97d59e1b088963010b6fd099b7af169478a",
        "l10n\/ja.json": "62ec1a4ce8d148216fade8edbf6749076bfeb17b2a9e59a9d758ed034317ea18c78c1f918736f574d106d8316d0798d7163a5c7e37404b3cf41f17e34cf61881",
        "l10n\/lt_LT.js": "0176d42e3f6801ae2ae755517138cc0dd93e69ee60d84946e5488ab9d27bcad5a70d708e7bc032c551237839376513c0122b481629e4f87fc03606fdd8b31f28",
        "l10n\/lt_LT.json": "8c3f28879a505a9726b01dd432139f302c6ccb90e46fed67f85b960a7b1911cdfa27f358b3b3e265ad4be2a41e0913eafe428fe86db62c36d77ac5ede85d6f6b",
        "l10n\/mk.js": "2cfba4884641b810ffa1c83e6d9fbece469993e0a1b32a7ab87d76e390d70ba255ae88c7afef46f5b23abad297e323bf4c29e842421c2f2af38cd6972b54f4a6",
        "l10n\/mk.json": "0e3a73992f3d3eb7131ef519cfb1bea8559c05caaaeeb7028e774c60a8dbd51e77e681126845504c854e47435258e321fd9ce68e4d80bceccc53f34f792b45c6",
        "l10n\/nl.js": "a4293284f5e56b45709a5b05588448ee7aa3881ba34bd3633e57640db33e6d925129ce4b49b483eb06ccf3f16f5deff7eb7aa03f4c061f80077bbfb985288fe1",
        "l10n\/nl.json": "94bede40d97c7c9e3a4d9a18fe61e15431e16a0de8346e539d7237d063aba81050b348738a38a428b82aeee7c8ce6ecd968dd84ed2f1b3dd314bb639eab593b8",
        "l10n\/pl.js": "b64ae860a879817194d0d9738ad0d489e6160ad41dc0cb4bdd2c1fce0ee547b6777585cb038c8aedb002f4755efb1de1f431cfaf9e0fceaebb5f20644de6cc2b",
        "l10n\/pl.json": "a00903dbdbef9b2035cb2c40447cb592ba39306def5159ee2395e82b794b900096c3503df9271516a2907f5b43e9ff6a94cfff6667a35967cd8533b050eb58ae",
        "l10n\/pt_BR.js": "ef9655cd5f15b5d14dff5e7e990ad89116aeedc11dbfa3d7f910a4cf32f1c5a071ccee80f3f4dcc53645789805cc7cecfd59e951c67b1ff940c4853e5a765156",
        "l10n\/pt_BR.json": "65561a009ac101217693f2db1745f3536f7786acc813cde7024ba3553a7994b48fa89bcd5194f4808db498ed926bba7b881428ca51b53c02f9aaf312a24d68d8",
        "l10n\/ro.js": "fd9e291ad50d56df05c1b36f92d6b4eab858d01b4be4d6bd93f89a39315bcee4ec354a95ed6e1b9b2b87fd46ccd1aa8044744e0158e235044fd7fe6e7a214000",
        "l10n\/ro.json": "5d780667a5afba0880d984f8a9911003c2039e2f300d59c312ad5252577d43a2ab365c33dcadde90540f737b4d6ce76040e570b1d53adb155129749419478055",
        "l10n\/ru.js": "15e657a6285fbdbb7d0e9e2a3ce10ff2cf07bf98aff931ddc22f4d645d5656597ab6afe9f8c92155e12042292b9b77d1d47f60b6c6f4af0cdc5fbdc51e97d4fb",
        "l10n\/ru.json": "014f584228e55b410e81091f85d2346c816a74cc6d37bc0f7dcad0f98c90fd8c0c7aad962ef8a9669cacbb66005cffe74967adf33f7807f9e991ccf93e0ca453",
        "l10n\/sc.js": "a0995b1261e5d3bd978734ff419ee7074bec0b7cfdc426454148823478aa263f8bb530b4f4fd197a8413a9c07ab7c53a8dc328e84a2dbac1535460b4329e9dd1",
        "l10n\/sc.json": "0c471fff19e1e97ac339900b3f74fef4449ac8d57c4ab83cace318fb406730c822393c208aadeb1efb2f2c89068480fe5993cf8d763397a75bd9d63bbbbb61c8",
        "l10n\/sk.js": "31145f44922b85ea850505ff6bb1fa574f44f7ebb22f128fb7530290ee3ab48d11d86411ffdc866567066dddd27d19968d52701c7079aa2889c57f50bb36d920",
        "l10n\/sk.json": "157320e6f1547c66c634f13627886fc4ba5b4231a2e2f00a01e296eff40cd7fbb3cb9074a8541a65e3e67f23fcc3b285e5d10c04bdb0f2be8a5395c0f5897458",
        "l10n\/sl.js": "387a357231aef2f88b5d2593a5616eb1f8848ed41d71332d920b36a460081af8f29c261630d8de5290afd4cd0a5e7fe41596baf3c8aa4300790c9e70b9a79a63",
        "l10n\/sl.json": "18d1db633758fead33e28ee676ed09d4a728233ead01a40d063c9d852be0331d6c1136943573a576bf0763d2cff61fcf1c52b17e973ef595f787cb3cc0384ed7",
        "l10n\/sv.js": "811ca53bd9bb529390e12497725380809354bb8364db98b870f10d28875278a377b4b1a5512e459a31cdc7c95ed666f0cfc0634e4bcf72d93c6fe6f9d1deabca",
        "l10n\/sv.json": "50414e43e9f6ac5f2ec45db54a65da156e15e8eccde1fab61d2d3ef00862efc11fa197c25d1bdf6594c4a573962915fc76a0a837079dd8d548ee08c68ceb8b97",
        "l10n\/tr.js": "a3930d94058eaf27ba487286deb3dfc30fa3ebc97ede84c24a80c057565c00d45595a770a231b0a75dab5e815674813265bad0457a447cb110b759aa863c8f57",
        "l10n\/tr.json": "312e476fe9bfd6e6e699b4c1b7779bf036ce96db1ad9b4205ddca69f5fca66ade218be76585e52ed871ab09d4d2335233ce94f35642d53541d1f02c8db8075ef",
        "l10n\/zh_CN.js": "37e6e9c0f8c8be7987184b8ada7d4ab2e90b0602b4d6eea789d21fcb5239f5bce989f4e084256befab0266acffcaef625e7e0b7d7f524a0849114cd149315a45",
        "l10n\/zh_CN.json": "1271bb45c85a8f96c264d283204ff9ade7041c30fd4679f20d038cd572fb91766bc5146ffac4a7af26cb6821deeece28454d66724a75558bccf99f35bde694db",
        "l10n\/zh_HK.js": "d6b40711324f1934e840918e282fa7f875d54246f7a565a4758a08264ea5214c44dd68515e56c2f20eba8b6cd56f4f849572958845fe24ded485351bb39fddc8",
        "l10n\/zh_HK.json": "2de4977f2976eb04ad4b042c603ee6ffe60c475a336a1c043d476dc6183a395c5a326a1426ca4f2d1f0e5a37b51f8d9f9de2613834d76f6c73256765d081738e",
        "l10n\/zh_TW.js": "0814c18f5a4d0b40165ec318ad384296da26ae1c628146d7758fef6fac06f75e8d5575cf59e58862aed3ca418a03fbd6c012efe3f21fffd34453954dd5628b45",
        "l10n\/zh_TW.json": "d1509793eaa0906782a4a5cf390532362ff3aaf3573c0b9862bb74136d24b32ccfcc000ab8ec376db49a48c6d590f3ae8aa302f364b35a76cf74dd7da7c32ad1",
        "lib\/AddressBook.php": "bd47c626bde41f19c1b039c98c859d81880ec655b6024bb9b1f25a0c09169b343b70e38b1e971bbaf43a4b52e777a9468f60ccc44a22dbf51af11eb58032c3f7",
        "lib\/AddressBookProvider.php": "99d8cbdd360c51142087bb83c69e8f639872a14fdbe8fffb41b3ff14b76e522652a56943a33dde38bb69aee8f08c49332b7578497a3121ecbc819c8429415ab5",
        "lib\/AppInfo\/Application.php": "c2dac94b95f76bbdda5c7ef2251b0133f6cd2f3511ae252ede225efbbe24dc8c97923eee826802a07f2ec7793addbf6f979b6be0ef33626d18c4e4c61398098e",
        "lib\/BackgroundJob\/CleanupJob.php": "c44a9a17aa6c0ea16f70d4945f53cfab46b2d275ef6650a9525396cca3774ee2a05de66cdae8b05555cdcc71d2dbcf586a69383bee2565715bd8d0bc6c39f51c",
        "lib\/Card.php": "119705dfa35d9020a78ef4b1e4e1f0bc0fb3f4cfc3aced3b1e2c1b0170698c50bdb59858b1a25c98bce91ee552b989bdf8c49245cb9217e19308993f2200865c",
        "lib\/Db\/CardSearchDao.php": "2da8477a88157405b1d761d3c8a89a1e570177dbcf27d10c1a5ed04e726f6ff526f7f38aeadc02aca477505a893314d8796b28fe2dbb92e64008de6c3a5812a6",
        "lib\/Db\/RecentContact.php": "f60d790d34606c3066db88f095ecd859de2ca3e556026a2bf452cfb50cc240d32c1216da1f84a5859786c72632a0d019cda32c04de5db82863f1f8fea4563d99",
        "lib\/Db\/RecentContactMapper.php": "9f18195883955e3fd084514b9ca68a39f0f6624f3f777ec5396004e5a700db939b39fbb438e863a4b9da6c110d2183391b16524b01cce6e2d48ea3b5ca1dec6b",
        "lib\/Listeners\/ContactInteractionListener.php": "0bcc6ebe86363393bc98510ba99e687ad3ab81d01ca816ed95e228ba827eb5234a354fdf746dcb0cd485ed2f3d4c7de43e2d4953083fd5d94e6b27f945f9b3bc",
        "lib\/Migration\/Version010000Date20200304152605.php": "21ad659b57646c6431afedbdd7aeace962ef69f6ba2e724fd01904e4ed22f1f43623c529853b20e2cc5d1cfd5b412134d73cc4bf5cb4c5c75bd5d828ad2cb604"
    },
    "signature": "Oa35Nh2oOjG3szrRY5\/DP8ukN2iuYEQrLgOWMIJjwbYcdRuZXP\/crzGbxbQM0UYwpd2+uWI+enfvmqHzg9+E74L4biMFyXCIz0UiWxOFweyI044ltK2GsLfPLKXrdXibR0afZSTJvtCIediC6xYKDbzdNdBQvkn87kPnAe9esURXzKhpoVtXNHoHb6vJu+lqLD21x+YtNnid4g56hzSIpSDynvTZzShMo6DioRInFBfl\/7WaJK8Bd3tQrCYKIC2ncGYdB13Fk\/5NSdCFTuGugxRSK+Kbfw8m1vRgsO++tSrxRIBu6FAvt728uou0+NaGAkFa9EABumQkuqRuF20SnQ==",
    "certificate": "-----BEGIN CERTIFICATE-----\r\nMIIEojCCA4qgAwIBAgICEAAwDQYJKoZIhvcNAQELBQAwezELMAkGA1UEBhMCREUx\r\nGzAZBgNVBAgMEkJhZGVuLVd1ZXJ0dGVtYmVyZzEXMBUGA1UECgwOTmV4dGNsb3Vk\r\nIEdtYkgxNjA0BgNVBAMMLU5leHRjbG91ZCBDb2RlIFNpZ25pbmcgSW50ZXJtZWRp\r\nYXRlIEF1dGhvcml0eTAeFw0xNjA2MTIyMTA1MDZaFw00MTA2MDYyMTA1MDZaMGYx\r\nCzAJBgNVBAYTAkRFMRswGQYDVQQIDBJCYWRlbi1XdWVydHRlbWJlcmcxEjAQBgNV\r\nBAcMCVN0dXR0Z2FydDEXMBUGA1UECgwOTmV4dGNsb3VkIEdtYkgxDTALBgNVBAMM\r\nBGNvcmUwggEiMA0GCSqGSIb3DQEBAQUAA4IBDwAwggEKAoIBAQDUxcrn2DC892IX\r\n8+dJjZVh9YeHF65n2ha886oeAizOuHBdWBfzqt+GoUYTOjqZF93HZMcwy0P+xyCf\r\nQqak5Ke9dybN06RXUuGP45k9UYBp03qzlUzCDalrkj+Jd30LqcSC1sjRTsfuhc+u\r\nvH1IBuBnf7SMUJUcoEffbmmpAPlEcLHxlUGlGnz0q1e8UFzjbEFj3JucMO4ys35F\r\nqZS4dhvCngQhRW3DaMlQLXEUL9k3kFV+BzlkPzVZEtSmk4HJujFCnZj1vMcjQBg\/\r\nBqq1HCmUB6tulnGcxUzt\/Z\/oSIgnuGyENeke077W3EyryINL7EIyD4Xp7sxLizTM\r\nFCFCjjH1AgMBAAGjggFDMIIBPzAJBgNVHRMEAjAAMBEGCWCGSAGG+EIBAQQEAwIG\r\nQDAzBglghkgBhvhCAQ0EJhYkT3BlblNTTCBHZW5lcmF0ZWQgU2VydmVyIENlcnRp\r\nZmljYXRlMB0GA1UdDgQWBBQwc1H9AL8pRlW2e5SLCfPPqtqc0DCBpQYDVR0jBIGd\r\nMIGagBRt6m6qqTcsPIktFz79Ru7DnnjtdKF+pHwwejELMAkGA1UEBhMCREUxGzAZ\r\nBgNVBAgMEkJhZGVuLVd1ZXJ0dGVtYmVyZzESMBAGA1UEBwwJU3R1dHRnYXJ0MRcw\r\nFQYDVQQKDA5OZXh0Y2xvdWQgR21iSDEhMB8GA1UEAwwYTmV4dGNsb3VkIFJvb3Qg\r\nQXV0aG9yaXR5ggIQADAOBgNVHQ8BAf8EBAMCBaAwEwYDVR0lBAwwCgYIKwYBBQUH\r\nAwEwDQYJKoZIhvcNAQELBQADggEBADZ6+HV\/+0NEH3nahTBFxO6nKyR\/VWigACH0\r\nnaV0ecTcoQwDjKDNNFr+4S1WlHdwITlnNabC7v9rZ\/6QvbkrOTuO9fOR6azp1EwW\r\n2pixWqj0Sb9\/dSIVRpSq+jpBE6JAiX44dSR7zoBxRB8DgVO2Afy0s80xEpr5JAzb\r\nNYuPS7M5UHdAv2dr16fDcDIvn+vk92KpNh1NTeZFjBbRVQ9DXrgkRGW34TK8uSLI\r\nYG6jnfJ6eJgTaO431ywWPXNg1mUMaT\/+QBOgB299QVCKQU+lcZWptQt+RdsJUm46\r\nNY\/nARy4Oi4uOe88SuWITj9KhrFmEvrUlgM8FvoXA1ldrR7KiEg=\r\n-----END CERTIFICATE-----"
}