{
    "hashes": {
        "appinfo\/info.xml": "9c8cf6648c77f85b4df4af8c84c5677d05fa090b9212d814e7a663ab8cfa036d586e943ebec3af16784b3c1da432ad41057559ecf3df28cfea9119428a3e3642",
        "appinfo\/routes.php": "1c70e2125b28bd3f479f4cf4e43bedcb15deff2b7a3ab04a07f69ce93cf2baf694699abb0bd0b622d1f23d37d8aca21748fbffdda98ada0ba68cdd98affd028b",
        "composer\/autoload.php": "6f30a9a5960c7fa0b4b9e00268363f89add41ebf193bea60777ff2a0d500c802fde915ab492359102e3de9acada2e11cb710a80e961c061d1602b08558750cf8",
        "composer\/composer.json": "5b078de0e28d9c7a73f23c9fa69fa526b62961cf5e5b05cfc8f56ec08844d11c88740378fb0c3f58755dccac20c9c59fc7df58310076caf6fbbd3d12aa6dc243",
        "composer\/composer.lock": "aba0413aa705be0d0570c496a43249c551836824e7a2b4673b51838fe0d9f425ddd07b6c4b95aa74ca549f58e90f2a7d78b51a2a3080749a5dc2e4a46d04fd1e",
        "composer\/composer\/ClassLoader.php": "866e8cbde808b4e7774c5d9e2bdda44e84ff9bc84268785aff1a75277bd7918dc26ceeb27732718c9ea93756777ec0d16c09c15f9c1179be3cbb410c7914d295",
        "composer\/composer\/InstalledVersions.php": "5ec7d1dcf913dd2026fc8881e90d43cfdae307bfc879b1f3e279217a41308b97ba9b2ad6b093a3a33b9f5cf0b2c86d9d5f5aceca7734c3b6def7e1a973a08f8a",
        "composer\/composer\/LICENSE": "f3bb64009f41a425df5a9bbab53490f0eb9b74fa8d6aaa2f57efb928edc4ffff330260666edeaa04a91fed708c3663371cf01b284f3a08d6698aaef7a23f355a",
        "composer\/composer\/autoload_classmap.php": "b6edff9f15773410db84e33b8c49e1864968b878912a7844261a33a6b3cb467e8136ba03399a6426c5afbf7745c62af8b0e9b2a2375c8926c7040110aef4f4bb",
        "composer\/composer\/autoload_namespaces.php": "5b2571f3b573a778d362b8c7412787b4084c7f27d3f5bba1585243f3ccbb0b9054e68522a22a1ad59ec11097b03a0e343865c0188c65b25f0a97e24e120339d1",
        "composer\/composer\/autoload_psr4.php": "b07308a57988ec91ee0fd0f6a456195f074a5b9ae339c40314cfb2db37d3e425c41b5d486d6e10d2076acaf03c449410b079713c3da28dd4493a817835fc890b",
        "composer\/composer\/autoload_real.php": "436e0e3e95ec72e2a9ff43420abd599187910421d8bd652ae3d4d0ddcecddb3561433e6b84e8adf633ec1b3018c0059d74cfc2d1c10f9c42a29ce241a871e978",
        "composer\/composer\/autoload_static.php": "9668463c273fef494287dd151960ed50222cd3056e3584201d03027acb2e1e2f3304ab151e096d2d6ebb59a2821b22669131a726d2b9e46fad34da196eb41fb3",
        "composer\/composer\/installed.json": "0a3ed51f953eb945b970a8eb21957ca2beee4669c7d0d9be97b8259c391b60688f8abb78d4b1fae5e4e2ea5e3d8747f4d35f066a2605e9a76f5b45ec3f1da357",
        "composer\/composer\/installed.php": "2d8cedbe3fbe7c6f1413e4c2924450336682f9140eeffc08c5088e3cd49abcafdf83465fd4c461d95b5d319cdab325c90fe3c7f6a561f006181f2a2b4b83fecc",
        "css\/settings.css": "059a45d8b1518f653e8e53fa8c8fed90a82ffd2c131fda06fdf67f2acb40832449c4a8c3098f73d4df15bfac368aca6e26c94eb802f6860521acb45835a3b035",
        "img\/app.svg": "9a0152975476f3f17aa0bb82a8ec538ba9254325db06cf041628b3fc2a74d80232836b425c7a9a324bb7fa361fc72f3bc84a639de756bc99dca8fce7cb15fc35",
        "js\/admin.js": "41a79ce09edb68723c1d07e5b0342edcfcea8f544ed56c8a623bdeee13ccf1ad14b42c8b160abc91ae7c3087738400db91c1e95be72b3392390548337076f83d",
        "l10n\/ar.js": "d7f5703931b0d01aedf81311b31abce8633fb8d32521ef4bc07c79b7a6a77ebc4ae181b61790fe97b2d76bf86821d519a434a28e7e6b21f52a956a36f4271fe7",
        "l10n\/ar.json": "4b22ca0d16dff2bda7e8f076dc8adac495fca36a348aedf1697b6f007b83d981c2d70a91bcacbb850303040256534a5e52888e304b2ed1443d937d7c25a07f1d",
        "l10n\/ast.js": "1caa4b55a5382b768b863422a8bcff4c4b335e815fb472d3e7ecd3ba72385e33ab6272eb6ec283bb28f615fa270bf4b9e1576212cccaa00ae4ff900c5a8a700d",
        "l10n\/ast.json": "df622f1f948f0c8c08f346662bd4795593af500bef75d7dfceaa3cc2cf1f1d26c4939509f62cd8df8d0b69dea5c5a46d9866bd15baecf588d3b9c9f1bd860272",
        "l10n\/az.js": "c1fe9760848e86bbbf303be6af82e5f9f7d7f4208107aac1bce01262ec054c21f8cabb3af78b84db07f9cd679fe7ca70e7ca7ac818f5b9415e6b241c86e76cfe",
        "l10n\/az.json": "b52cf9c5b2a1edec0dfcd5c29c69180cf867c8a276a84d561cda8c8e3bc9edfdd7ec65fe23bdb8ec644a7a0e7fe8ac6dc115f03bccd6cbd0d7214ddee78730af",
        "l10n\/bg.js": "53c92c08e829f6c2c07038069b240827c6a1fd881cc3f40c169d8a4e1254b5c578d326e4a9baa8f3e052b0b6bdd6d695527ff07ed28e2a76c977a6592659cfbd",
        "l10n\/bg.json": "21c137ccada9ba2983e3e415790eb8184469e93d806f827f53663a5e56914f9380e4da843bb11f36e4e417da205e2a5995aadac5e7dbf77f99952d6e56e22ae5",
        "l10n\/bn_BD.js": "646adf9b558187f1532978023587dd98db5d477d2a3b63c20fde82fd896ec9ea9e391878ad5f991a9f2bb9ca2eeeaf210e062d28b559475489a92677d03c854b",
        "l10n\/bn_BD.json": "959e9c167651b261534c72a55f41365144b5754ee566851f7421ece1806c39b2c6723d8973d9b42d8c66ffb50dca680852dc797885fc26e425be0f1d370ee26d",
        "l10n\/bs.js": "0add3fbb9b96b3b20fb754f27d94b3f85eb5a41d68563cd7a23a6ae7f95ab8d550a9a5a3d5733932366cccbaf843b25b1b0d81cef378301afcc400aec0ebc86b",
        "l10n\/bs.json": "802d1f2b1c9e24f2c2dc0a5466132367b5609e61f0aa74595769ba32354d4fcbd4eb093b81d6ffdc8f3f6edfd34f8a553962efee9d935c6003884eb50222cfb6",
        "l10n\/ca.js": "3213daa5ad75bb82ab2aabebef8b28ba16d9b4df2df3ad5cfc8c7708986af962d06b1375445f9be6a8c9bcbf25b89bbd2b657b277c669e80a15ee2ecef330e89",
        "l10n\/ca.json": "a842099837c20a167f54317b9118c72b4560aadb6f6645d784e63d12ba443c262e1cdda19358c5e02286a9655b95e7878a279dae19215cba55c31f4e7de3f0b8",
        "l10n\/cs.js": "f604f342772e53911125ffb61544974c1728298ce3e32bb4f33c58b395cfcb028a7f563f1f17d8acf6415fe096a487ac902bf2dadc2399cb08623b473c3cd819",
        "l10n\/cs.json": "14c8470d189287f7f42f270ff42a39d947eb4eb7f5ddd91d9ff903e0dc95cdee5bf53adb812edcfdd54cb358923504b837a9a97f825dff3d03be839cb35e9b36",
        "l10n\/cy_GB.js": "c6c5fe82ca8a7e43f04cdca44d423187533c0b17d8182c8ae24a90d3ea0566e370641e4c8910386762ce0e55adac552c03ee916dba364b047d772e5be72517a3",
        "l10n\/cy_GB.json": "0477b3556a9f4a524c04b8d9043faf421194104a2702d5dbddd8927d7c389ec816adeffa6061365bfe8fadca79b202b025cef4207773878c911e6afae8570320",
        "l10n\/da.js": "3082d5caede3bfc0916c7e77d8ca6ba1d0bc7eefc00d84c15901b833486366a81b111e8585cb86356950b5722be702af410ad06358d38fa1d3211c0a6ff9bf53",
        "l10n\/da.json": "ffb130edcf99a688ce54c90ad9c0b9d5debc45f3c15dd299280b913b84d3b93ddc220053a14c528af80c35897a3d41d2724861b3a77dd8eddcd21c477d4ab45e",
        "l10n\/de.js": "2e18dc81bc616b87569551eef3256ed2d85a4193a5478f7b9ecb6614815df748ca15895afe33167627c736a6a56e702db58e3bb71e852046ce506f8877fb7be0",
        "l10n\/de.json": "22ab8b0c6d203efb1820402c3bfbd8fce442e74b93a7a2c8743d6b670472b06806b104e9fa049b72841f2459af58fe96d791a72dee5a56f09a299e083202f42d",
        "l10n\/de_DE.js": "ab44729c8ac52b8128fc167fd49f00699de058612a5e267decb6f38abfaabe2575f1acfa0e5908ea24b1c9f8ba205b4f9f6cc0efa85033c0103e74b7c665a480",
        "l10n\/de_DE.json": "5ba8d5615abce9d8159e53b90e9f06c92bea9fbee17717f4229c3b54c58412ee7fe0a23b6ce165e7410f3d35c737117d2a46c452f55020c4f0098841844a2e9a",
        "l10n\/el.js": "a82073f3f9ad78f76116060692c4386ffa97e7c8fa7e3c40b5d104df44c5b187b8fd9d5d05bf4baea2e85c284acaf9037cc636768a7dcf9095971941a2889911",
        "l10n\/el.json": "41da3f9c316ff0170984bf9923284f4fe009c9a5f3c0ed289b1c99213b8ad999db09c57732694bfb3e04bb9182d3bc9d7a2248ab0606690a7cee71bf06dcb063",
        "l10n\/en_GB.js": "dc9e392afeb92ce7dd814cd1c069ba8c9485ac5ece32855e90b5a4aa1c38fa5f0a9b8b9f95a96121cb88540df5b0bf9212d8fb2f64acb5fc33d13b8b05a32ae1",
        "l10n\/en_GB.json": "d53f1a401554ac0077710c48902cd6ab38d2f00912e3da424ed0f76fcb1709c8a31a03e6000b047d14b6a949c704a1a95d53f41d30dac475f0f4a766239a5c93",
        "l10n\/eo.js": "03c8d27f41ff953f92d4beaa5796a0c4dc9f8c76222696935a6379faa9e645ba7045387b6fbf5e3be909e430c958e986241e97a24a93e9e2b93c4f657812516f",
        "l10n\/eo.json": "a3c81766bc1f9394002568eb5f4aba9aabc031ea9e71630974133d64845b481341e0405e87ec3755e3b04cde9f01384123409ac3d8daf134ad9ac6b0de0885c1",
        "l10n\/es.js": "aca18efd3e703f9ac11a0d85e4fc228ea3e28b15853f1109aed64cf8664ebd40b78dede5109c9858fde3a2d2b95d997c80fb0a95acefae4253a214a4e66743ef",
        "l10n\/es.json": "b4797dbe86a329e44fc0c206bba8ce693d1385efeb12cbf323aae8406f2fa77443a7da552ac0d579b9db81834b437757aae4d178302be6ae71c4b87ef2cb48f1",
        "l10n\/es_419.js": "4935b6169224dbff2b43bb2e99ddde8c6ea570aee53478b472c0b990af2571a8eac37b08b16f448b525509e3be9b2cbe971beb8e863043febc50cf5f7c6e953f",
        "l10n\/es_419.json": "62a9749e254d7cdbc5b2a843bb91798fac44334b19713014665fb0000d3b8ead15178171c17c277b54ae244fe95e20b91e563d898b38b4eddde1c8f530255ec3",
        "l10n\/es_AR.js": "35d89612adf8a4d3f5cf41de449830a17b9ef26bfde0c2d0e22648ca9903a409b2b1fa2b22e446dbc097a50279c4f27f9522c10a3eef4cc5771b7b95a3aca2df",
        "l10n\/es_AR.json": "3df47998ce0a20f765b737d434ad127dda65509c229e395d2a0e941be66aee1a44e30574189436d53687cc7d029ac1e7ee786b9a26b7bcb769dfaac0ddf33159",
        "l10n\/es_CL.js": "772ea59361839f19b3b6a0e73e863f1ecb65dfb038a80b505aee27e546f74fcfb3bccec382ef70b6e1ccdd5af628cb5d851302db179964703f4547c3c159b6cc",
        "l10n\/es_CL.json": "2c879459e25dc568380379155030a487d52b0f8d96da65e8d17d3004ae4a4929d0c010c19384803a7d9ac2a2d626bb7d0a5e858d3b1b4c72a44dc0e4c8eec260",
        "l10n\/es_CO.js": "772ea59361839f19b3b6a0e73e863f1ecb65dfb038a80b505aee27e546f74fcfb3bccec382ef70b6e1ccdd5af628cb5d851302db179964703f4547c3c159b6cc",
        "l10n\/es_CO.json": "2c879459e25dc568380379155030a487d52b0f8d96da65e8d17d3004ae4a4929d0c010c19384803a7d9ac2a2d626bb7d0a5e858d3b1b4c72a44dc0e4c8eec260",
        "l10n\/es_CR.js": "772ea59361839f19b3b6a0e73e863f1ecb65dfb038a80b505aee27e546f74fcfb3bccec382ef70b6e1ccdd5af628cb5d851302db179964703f4547c3c159b6cc",
        "l10n\/es_CR.json": "2c879459e25dc568380379155030a487d52b0f8d96da65e8d17d3004ae4a4929d0c010c19384803a7d9ac2a2d626bb7d0a5e858d3b1b4c72a44dc0e4c8eec260",
        "l10n\/es_DO.js": "772ea59361839f19b3b6a0e73e863f1ecb65dfb038a80b505aee27e546f74fcfb3bccec382ef70b6e1ccdd5af628cb5d851302db179964703f4547c3c159b6cc",
        "l10n\/es_DO.json": "2c879459e25dc568380379155030a487d52b0f8d96da65e8d17d3004ae4a4929d0c010c19384803a7d9ac2a2d626bb7d0a5e858d3b1b4c72a44dc0e4c8eec260",
        "l10n\/es_EC.js": "772ea59361839f19b3b6a0e73e863f1ecb65dfb038a80b505aee27e546f74fcfb3bccec382ef70b6e1ccdd5af628cb5d851302db179964703f4547c3c159b6cc",
        "l10n\/es_EC.json": "2c879459e25dc568380379155030a487d52b0f8d96da65e8d17d3004ae4a4929d0c010c19384803a7d9ac2a2d626bb7d0a5e858d3b1b4c72a44dc0e4c8eec260",
        "l10n\/es_GT.js": "772ea59361839f19b3b6a0e73e863f1ecb65dfb038a80b505aee27e546f74fcfb3bccec382ef70b6e1ccdd5af628cb5d851302db179964703f4547c3c159b6cc",
        "l10n\/es_GT.json": "2c879459e25dc568380379155030a487d52b0f8d96da65e8d17d3004ae4a4929d0c010c19384803a7d9ac2a2d626bb7d0a5e858d3b1b4c72a44dc0e4c8eec260",
        "l10n\/es_HN.js": "772ea59361839f19b3b6a0e73e863f1ecb65dfb038a80b505aee27e546f74fcfb3bccec382ef70b6e1ccdd5af628cb5d851302db179964703f4547c3c159b6cc",
        "l10n\/es_HN.json": "2c879459e25dc568380379155030a487d52b0f8d96da65e8d17d3004ae4a4929d0c010c19384803a7d9ac2a2d626bb7d0a5e858d3b1b4c72a44dc0e4c8eec260",
        "l10n\/es_MX.js": "fad81a6e159f3f7d613bbcb43504951448d55b259b7401f67da20a5c03800e17d2c0291e22140d850866cf5ad46a93526bc657ef37b868a97bbc52525aa183e2",
        "l10n\/es_MX.json": "832aa0ad5902da4d29c95ee5f1d98cd38120f9cd0b40a96c934a6088ddf16d848a629ad405f460b551c42edcb467eb7372b3e116ffb5ec79e937f0dd93cc4d4a",
        "l10n\/es_NI.js": "772ea59361839f19b3b6a0e73e863f1ecb65dfb038a80b505aee27e546f74fcfb3bccec382ef70b6e1ccdd5af628cb5d851302db179964703f4547c3c159b6cc",
        "l10n\/es_NI.json": "2c879459e25dc568380379155030a487d52b0f8d96da65e8d17d3004ae4a4929d0c010c19384803a7d9ac2a2d626bb7d0a5e858d3b1b4c72a44dc0e4c8eec260",
        "l10n\/es_PA.js": "772ea59361839f19b3b6a0e73e863f1ecb65dfb038a80b505aee27e546f74fcfb3bccec382ef70b6e1ccdd5af628cb5d851302db179964703f4547c3c159b6cc",
        "l10n\/es_PA.json": "2c879459e25dc568380379155030a487d52b0f8d96da65e8d17d3004ae4a4929d0c010c19384803a7d9ac2a2d626bb7d0a5e858d3b1b4c72a44dc0e4c8eec260",
        "l10n\/es_PE.js": "772ea59361839f19b3b6a0e73e863f1ecb65dfb038a80b505aee27e546f74fcfb3bccec382ef70b6e1ccdd5af628cb5d851302db179964703f4547c3c159b6cc",
        "l10n\/es_PE.json": "2c879459e25dc568380379155030a487d52b0f8d96da65e8d17d3004ae4a4929d0c010c19384803a7d9ac2a2d626bb7d0a5e858d3b1b4c72a44dc0e4c8eec260",
        "l10n\/es_PR.js": "772ea59361839f19b3b6a0e73e863f1ecb65dfb038a80b505aee27e546f74fcfb3bccec382ef70b6e1ccdd5af628cb5d851302db179964703f4547c3c159b6cc",
        "l10n\/es_PR.json": "2c879459e25dc568380379155030a487d52b0f8d96da65e8d17d3004ae4a4929d0c010c19384803a7d9ac2a2d626bb7d0a5e858d3b1b4c72a44dc0e4c8eec260",
        "l10n\/es_PY.js": "772ea59361839f19b3b6a0e73e863f1ecb65dfb038a80b505aee27e546f74fcfb3bccec382ef70b6e1ccdd5af628cb5d851302db179964703f4547c3c159b6cc",
        "l10n\/es_PY.json": "2c879459e25dc568380379155030a487d52b0f8d96da65e8d17d3004ae4a4929d0c010c19384803a7d9ac2a2d626bb7d0a5e858d3b1b4c72a44dc0e4c8eec260",
        "l10n\/es_SV.js": "1bce2b50615f13f41bcbb41e0263435b7dc0bfa461e91d419a10ad37407bd7fdc8e34026b33a7e8a00beabc878f53fd3ee5d065c860f096724601f8182748627",
        "l10n\/es_SV.json": "f9f941bdaf06ce2d848e70a368e48080cd5562195cd6aabaaf56fbaea4507213f3c0968a47744e6d93cb253f9a1268d477e406292cdb8145ac736d43b0702c3d",
        "l10n\/es_UY.js": "772ea59361839f19b3b6a0e73e863f1ecb65dfb038a80b505aee27e546f74fcfb3bccec382ef70b6e1ccdd5af628cb5d851302db179964703f4547c3c159b6cc",
        "l10n\/es_UY.json": "2c879459e25dc568380379155030a487d52b0f8d96da65e8d17d3004ae4a4929d0c010c19384803a7d9ac2a2d626bb7d0a5e858d3b1b4c72a44dc0e4c8eec260",
        "l10n\/et_EE.js": "a0d18243fc672cd26708d7d329b939d39ed3be987f026649ff944f05b5ee7b5702d085db09e8b09c49ad756282d8b7a76a2425092b83b5dac87a229a3a455929",
        "l10n\/et_EE.json": "17f1007b7d669634cd0642d3e9b16212b9b2bdd29139cc514050924406d494b857e0a19905cc9fd4cd6e1894f992622144e678cc23a78a09c65e0b7f4db01d62",
        "l10n\/eu.js": "5334c7d932368748c3f1370f0389b261faa58499d616805f821eda85e5b7ce8e1627388e46cbac513d5e590b354ba2db581093b9130a71248c26a8ecb7a18737",
        "l10n\/eu.json": "7ce04de144c2bcd5ecac41cf22cda5e38b9a029487fdbf2e7d7227ac892687fe91f7132923de25d6742f933c16bc966547a50d7b8f4deb44dac69316db8e7dc1",
        "l10n\/fa.js": "3a2529132cd2e0c5015e5df1993d9d8d520c704b961e5cfc293b1590c496cab5c406c60a47c23c7ecd64c733fef063c86c1666da13c98b9e9e0ab2c95d4a50b9",
        "l10n\/fa.json": "5a4e9417040871f736a79568c05bab8f9d67133b8bc3bba823028ff65b4a5ca57375152e8ed51bc33838cf23de1089c0d35b31ac527b3662125a3d924bd65689",
        "l10n\/fi.js": "9c6faf7be0e8a8aa15b158620cefa408293d2065a3f99c7c41d395f2661d3ec6cc49f0aa47f98e3e2a5d245dfeda92b37eda7b58bed4487bea934dadeda0ed45",
        "l10n\/fi.json": "1a21b6e077faea887500ddbe447e92c09785dfe2b02e30d3954689b1276d378fcb35ec1c3c6e1ffe4aa387801d441bd932cbc872ac3820bcec653819d47e701e",
        "l10n\/fr.js": "90b048daac9b3a03fadfa3c24cb58078de79df33eb12bdf3344d2cca28093bc74b4451632d8aa06e191d14ac05cb11443191a0f349a57c30bbd4fc4a7c652a84",
        "l10n\/fr.json": "f573decf89ac1818e16737e61e7121ba6a33abb3e766c19607c5993dca6ed2928401ba413f87533779bd64d73d7b470723710a66dd486e506c838bb2c9b987e5",
        "l10n\/gl.js": "92386b8acc40907ccde93cda9f90cac76f39a7a5e53d51b404fa8518149d35ba63448812fe67e170c9dcbbd2a543e22175f3a9a33acc99eeff926997e8db59b9",
        "l10n\/gl.json": "0aac0cf60d0d14c646df26b6bde38e7413bb488b2cc92f273bda0c3b8bedf490847678bd2a0e32128b59257380ff65a0e0d0e81cadcc58df57cec5784142027c",
        "l10n\/he.js": "bf373b060b537728bcadcf632b0a818523e4deff19fc6bb5f643104b6e5f09dcae15c1e697085b8ead87f39711c5c09835eb6efb3cbcd8d4c41152c526555218",
        "l10n\/he.json": "a42dcdc7d29275bbf149f5ef30e3d6759c4544d3405dcff4b611bd9462ab1c9f86c06093352c0f5b54c25355b0bb6197a287b51da9420bb1ea7dedd864f1aa2b",
        "l10n\/hr.js": "62770badc451ef6d089cc334a29664e7167bc400618c1f473ef093dd4639df93af0bf472ea2086689ebb1df61ceb33d15ddef3a8eb33091621650130ad407636",
        "l10n\/hr.json": "430fb10034bb8aa0f174b836851036239337db805de2641536613161cf2210dd6e2a70a9702631c2aee254176001abd7c3af045cf204d15c0333e3617c4f9e8a",
        "l10n\/hu.js": "12488d15b3c04e6644756504c5dea1a836fd38a298b38c501dd88631fed93c034fed380cdb3b0c7ef4ed7317e5161630eb0a6e18b9e77112adbe3abff2d9ab76",
        "l10n\/hu.json": "fee54a69e74db7cfb36009024f883c2c96fac53f0f00501f9f477cee08aef378d100b7fd82634b68f5c19b076176aac4881774f2f38a9f4d97e2c92a37fe3fbe",
        "l10n\/hy.js": "b4ebd09df8fd42dae0c112ec3950b7d3dd29f33d47b2803b83a75fbb1f7ba486d10563e719c55dc625b8b9dbbdfc8a4f25cf0b2963860051150a10074732a210",
        "l10n\/hy.json": "aac4ea40d025a3dd1c121aaa1e2b301e0b40fee61d9adee395bb469653997f7a3ef90ec53d0fde92daef9dede2f8e44bd7c973fd6945f79a534857d32e623059",
        "l10n\/ia.js": "d2cd2c10026a0f63d815f2d9e2dfec23c41feb8cb3cc2f9f3d265055e0ed716455eef967275204401a4e693cf00e3dcce5601484b76ec59a9724dcab323218b4",
        "l10n\/ia.json": "a30dab774952a084259ac22af2c571106f1f8686b27e6245df7328316d49a98e6075bc519553d61ca4532867bbab7c841cb750997e0501afb2234319a35af244",
        "l10n\/id.js": "fafa2f2b33bc7a7edf6d5579bceb9c9a611abb8c3413575aff72fb228d77bb71b00704e98bbe106abe1bfa2573766ecfc717ebd57cb7fa984db2d05efff073c9",
        "l10n\/id.json": "43cb465190e5b9fa30ffd85994cffcc2f713c775e49cf3ddc5d3525f9ae9d5d9ac4a83cf53c41eeb386e968c0cd9ef573c1f37e635d74f711861455f74b16c81",
        "l10n\/is.js": "25efb6fd9fd4dc70451840011dfec58c4ccede613be0a9e0aa52577bcf7eae9b442e86fa2e8e2e0e1959d00f74804cc0b20bc554b2cf08167277b007cdb86b2f",
        "l10n\/is.json": "4445dfe6f2f7386b3a23e2a4c96afb97722244b5228a4a5fe56165ff9f0e46b0a94bcb628db7b90ef064fc23cf5bd4c616ea69be6dd8e832e26b22906f90a087",
        "l10n\/it.js": "7874c56faee9dc4b8dfb8d77eab55bd1f479925be76ea52c77894861a3657e74e4ffd98bbfd5fee4a3327f4e5d7126afa827fb8832cb46a91cc7f6b3046507ac",
        "l10n\/it.json": "b882ce526622779b988d57a2a4b6c31b1ac287b73696f0bbd63ecad31c918bb1ece5f233216d9a75c79b3af3d1c7ba7920e686790f7103669b5668644f247eb4",
        "l10n\/ja.js": "30f18a4728ff65cd96828a83ef380f5267a324dd061db0acf4e6e8e616ee9bc26f958c42cdfce685cea9f2c34e0cdf57a632be87f5ab175a5c8bc35ae01cebbf",
        "l10n\/ja.json": "babcac117814ad964c4df588ab452dc7aaef71ebcbbb61a311554282850804d1b0c9e369b1d0cc64d2b99467f80ea87e454af3fed95b18960e9d52f1fa8750d5",
        "l10n\/ka_GE.js": "2257a5fd025d18910b4bc7bd02520c4fc5ddfac031fb1c3ecf6eab28ea52e87eaa55f68d73ee523d43363cb03741647f066882cd81b4e61bfc3206fe1bad8b26",
        "l10n\/ka_GE.json": "5e1b102ae0a3ba86312179dc23163d5832a72da5ca3d9b394137a25a699527c58a790dffd6b276a8421dc3420d4b0f9ffdcbf6a49533d5f90885d8d11dbedf7c",
        "l10n\/km.js": "f0a2d54b87cf644af576e1f58558536fe4007442156b879247245d5465800014d611dd12c0b5a4c61c173bb8b8eb168fa5a138418a18d1e2b28dd7ba7c7fdada",
        "l10n\/km.json": "8e7e2140f61d5865c413dff4d211070bd7e6c20d9b9243e86b2a4c2e11b4f3961cc81eaa60aaf1d4f1a4a53fa905a6b74d91293841a32641ca20ea800604b752",
        "l10n\/kn.js": "d529f02a6a4668103521a3d89f5f93f088386bfcad4d1242f1a7738bb89185bdcb6cb1e7e43a363d9e9c6c71a6ac62a611f4b58e2ccaecca65373148b8dbaae0",
        "l10n\/kn.json": "f660ae7fa24c6507e4abd1ac71bd619958a3e7e469617197af90d83c540841b9ff7ccee0c38b356a7b987303d00efcea25f96e45ca877f0f86b59f96e1612be7",
        "l10n\/ko.js": "66596380e9f5f58289ac45cc0596234ddec016302bad967e37c70f78bc2ebb8140c520aa2508557fbbb05a29d2f04865fc2a15fe231fd99d82c2f569c0cec802",
        "l10n\/ko.json": "71b002f9436b73c0e706b3f8a4f4faae339957241241f7deb2ba41d6112f485700da89b306d373f2aea6083b360a2c5e4119387da826d26b3a696bf949b61d20",
        "l10n\/lb.js": "826df1a01b9e60beda9408fc21175a209a59827503de6230835193cc0d949b1825ea4fa1afb3c0dac07b10bf1aff39de0d25998755891fe8513e02b3e2d0c738",
        "l10n\/lb.json": "c72f32b51dfd3063c72d241f5ac3f03ed01eaa01ed1d34a626b3af7947d8e74522f145bf05b10d04aa8915a0d6fc335799c49134005f5bf67707c83ead14107d",
        "l10n\/lt_LT.js": "97b43a74aa617835c85ca140c5feef8b3b6f54281bae9a3e737071294a5d93f6c9776e54d02a783c8363d1ff562585061fda9bfe7016abba75c9b84e4f44633c",
        "l10n\/lt_LT.json": "c444e44fb77c402b6b0adcd1405c34cbd312f3b284c5b33af37d16d0be43d2950921f1263ebbbf178071a8a1f8a9b24711a57e5a3ad548fd38fa605fcc2b66b8",
        "l10n\/lv.js": "e091594ca78456c75780b8a64b18574af0bdee4f7ce075eb1acd0f0b6f506ac0b5a3ff98683489f55f2711da91f64d2905bc4b6198869cc3484be4ca16ade5b4",
        "l10n\/lv.json": "f4198e2f80453300ca25e8027b71f880f858a01752124789c8dae2534ef2d90bbdf614debc5424ddd6ef57c753300fb2786563779d30180d5c9a49713f00a9a5",
        "l10n\/mk.js": "d9f6428244ef2482b067f32af69ede230626fd18327f12a32e0a095580f938b82a1e18e7906e348baff861836b1e03c143a19fa9c1cd20c4feafba1a7d14a6e5",
        "l10n\/mk.json": "a78f1e4b005642bd3823b033e36f3cd0ecec8878d17a410dfa560d35f531a5d7d76e1f459b532441b4ec5a5ff4c6d7448d36d553037b9db8db2cd8c3f1fc9ba6",
        "l10n\/ms_MY.js": "3449198d62b8e517f2bfd3d6bf905bbff0001c434575338b15e5cacc5c4beac45c1f2d75244509fe60c8211df56c0dfc18740d2586df1c97f081a66fd8072dc0",
        "l10n\/ms_MY.json": "695310262697417634be9a4e25e3308edd8340f96d7527e202be100f7d4913e1ff322bbe17aa175ba8d48c86d0112b15e314d810d95e52e3ac2e27f629edbe59",
        "l10n\/nb.js": "a1f0c953c2bca3707e3e33e1606edfd286142c910eaac4b6c53fd8c6960b869242b53f53f3efe7425f03c7ceba5c651c4c46b685d71aa7c9fd815a32335d2473",
        "l10n\/nb.json": "d6586ee7d60088080a624c77836686c220a82e6039c5d547590a4da5a2e616493e29fa81ab8111e29d904445e6528db151eff1f8858dcf6223a94bdc14c4983b",
        "l10n\/nl.js": "3466998ed7417930f25fba7dfcd5a66e2c106c97c807a8aa5b46c0d3b3a52c73092c9e8f006e04e64cbbdb5a0b9287d4ba46233b0e3604c455e59eff96c20ec5",
        "l10n\/nl.json": "9012c9f89339b16f8757466ccf0397484f75a10f222265ffdf89ed83a85d2126ff384bb1c4d689bceffe129c605b8cea2511bb1ded07b14592f41f7c314d9696",
        "l10n\/nn_NO.js": "40fda56208cca9df0c15f7a86090eb1dea29a19b830843ce4ed5b28d7f08ee4ac1517400b8f6da876d6085184e67ab7ac17a86fb3e807b0fbf8b896c265c9bee",
        "l10n\/nn_NO.json": "770b6b28d57afd56a9e36c9a219d57ec3a14e861e3e0738e9e2205455cc45a5122542e14e2b0f0a1ed88a32cb4c12aaca32a641e4d7cea624bb6c44dd6e2edb2",
        "l10n\/oc.js": "2c68c4e5dcf320a091e79095f923fd1981c230d63f785415b03e6575e8603b5887e53881268e0da69c53f9ed3af0f2e08434cb71190547ab80ab5cc3046d052d",
        "l10n\/oc.json": "f8931b52fb0dedfefb7c79cf5867411fb889bfa3939691f264a62c913ee3e5ec37c6edbc3cff4191ebae50918f7e383f9bee57938828b4e21ce3434c7cb57e74",
        "l10n\/pl.js": "c45808d3723748d7bf1c733bc0e5d6fbc8a6c62605c9de952ba3b9b5ddff880ea6f882adc637fd153f3e9c199d2fbcde5e597161e655d7b6676bb9046cd66fb0",
        "l10n\/pl.json": "0a97b6b28a4083f794b3adf2511829f41063028be0ffeed61aa81856f4db0ba185959a01da3670a0d7c77087f194e9a674384d3350a7bd73a36524914f3cb6a5",
        "l10n\/pt_BR.js": "a2362909fd955387867ca9659d8583c34bb98dd9758130edcddf20f60d7f369e6e6d9390a9888801dca9d85a925eb7e87fcb871bac6cf87ddb5839c6566af46c",
        "l10n\/pt_BR.json": "45a94e4808ae10475ff4c4dfb623584d3022d2612f2da42b2e1b1b20ca5c63e1737b5543fe366741d36bfec41f70c247e5c5618161036e724e8dd568e2a4f13b",
        "l10n\/pt_PT.js": "90a177d9d7aefc3165a5e3fa6f954e38d61a2acb3d0f1fddb579211cb00fc51521b95a6393deaba1c3a20ee8f5d66b9055bf98268b71b4c658d4c05bf064c05b",
        "l10n\/pt_PT.json": "059cd59179e503892b1aac08ef9e6396cfdc261b1085e701bc23731fc3759186e135defab0db61ebed0d1d367e10e81cdbd9404112ba02cc3c16bed821bb22bd",
        "l10n\/ro.js": "042bd9b0d0b99e84cd0ad1a57cbbeed335139b9e9cf70d8f730faf7341cc9c3dfcad1c2c86a8ca4935ad3b76c0f134d8b220cbb35b6c47bb886d86d1003f475c",
        "l10n\/ro.json": "a4789638eb91010e25769482e48f9a76bfda75669049faf264ed4f64112158d0b17459b144dfec98185931fd127d67624a5c4b3c3f5653e768592c5ff5b0564f",
        "l10n\/ru.js": "5d06077b38a92e569ec66656e0ec797b15f2e68a68e26fa5b3c5fd6192e9a079712a60533543133e009bcdc49e6ec1ab77fd01c2e6983284c2af71b2664f29cf",
        "l10n\/ru.json": "35f8d48d7738c99778224fcbad5d6ee8c6aa13213ec099e925a2a11bdeebc28e4eb850dcd2615215131167cd56128034b9bbd55245e4e6af5d9009321b7ecc07",
        "l10n\/sc.js": "02c633fd6d6983f39cabf6205f47cc3c39a57adc6ab1bdfce5eb18125e720143ab9012f73412b20fec1295d8d7b08118b207a563931a35c356ab618caa3c68b3",
        "l10n\/sc.json": "a177ad546c2c318c2d6ca25986266d60318341b66a4945a967b5e9f147b2123c636d38ce42b51fe8ed1782f2e6751734b973818fd2c3adaf73cb350b98a482b4",
        "l10n\/sk.js": "506665e6885de85cc8689ec2826470a859864d5946195b18365beb7d06143cb9e07813a39f6dca73b50ada5b0b8bbfd5ac478b5193d196543810904cbe80c590",
        "l10n\/sk.json": "797b4e9f0ae5894280079b8b06e776c2c6b41a0d2679a7665eb8e10d7a0efd2e04db6fa74f9815895b6795711f41fa265d414426ed7d46a9799b4675ebbc8592",
        "l10n\/sl.js": "1fa5140aafb53b3d714759a916631cee9f535e565f0272948fea8e127cc5c2f92380f10fee9b90927be36b919206871e08b8eb584b709269296a6224e6a4128a",
        "l10n\/sl.json": "be6ead4ac17292136329c443833d807bdbb7eebdc31f441bbe0d35b09c4e25a8c6de36bcb3ce1717ab4cc14d12c20f5cef48fd3d028f4d964e337d932f155c62",
        "l10n\/sq.js": "3a365c53811c05272b1ad687179334bab72ec720dd7f3aff1350fb1e372e88f21080a8342f312121d3bd5d458d9283630a465b96d18dbc5a51615c477d4de5bc",
        "l10n\/sq.json": "85494ae455e0d7ee25064a6f580d3876847a8ef9249dbcea54cc45ec01c7b630a13d967959dabdf7c728ebde3d773895939e0c95702f7024d7d9e90e93899889",
        "l10n\/sr.js": "6c6b0961991492e1328d1aa861a407bce5dd9f6ca857a55037a5f79dc69daa1c2ab52c4225a7a399583b3741e97d1c2136aac963228715dad04b5d2ae0ea8eda",
        "l10n\/sr.json": "0edc32b239622dc0b097520aa432c1c6183e2cd363d599dbe6879994bdfab1d71a2223a91b9126ea253b9ab50d866765fb783369895613877d6e6b36f4467dbc",
        "l10n\/sr@latin.js": "8c5e746ee75008bfb5130e9252a10787b07d75afc57e9ca1d9f465487c969f42690beb049d7717546f7b7c3cb1bd0512cec7fabed580b8b33be8f8bb3cb12f20",
        "l10n\/sr@latin.json": "442996445ea8ccb9529339aa32d46117802225e8d81fac53ba2588bb12eca0e78bdf2d0b606a0f79b131c058d218d68d3866b74c53296dba2ac010961948cd9f",
        "l10n\/sv.js": "779075feda90f9f1afecc5db3e6b4be413b9a035a97529035dec1e0560ce2026d85a9a6bcfc4d6d31aed8f834b90b33eb7ebafc3e7d83d0c7db743112c9fa7f8",
        "l10n\/sv.json": "8a64116624746ef3b5799eaa59fdbd60f9323030098ea38587008cc9b30004ceaf0728d170fd5885c4104c42934d91cec759af0115c43ba5c8d202941ac78314",
        "l10n\/th.js": "19421f43eee1df6c72f365017670399bc11585e19c7bc787c979f9fc8418dbf5ff71b423d411be1c3cef0962121c6ebfa6b9cafb71e200e4b3636e2c0ac1107f",
        "l10n\/th.json": "7e99e75c40b8fc6b4760082d15ce123ae87711fd4e4433147f91df6875d20bfaf249b427f5a28a51b3db124be45ad27caa1103abb06de75566298e8ff57daa71",
        "l10n\/tr.js": "50e3594528567ace1e37d8901a8a1fa65e8467e6e4c81c829105388664307cfe7529bc6a6b77fbb350a84f46174ccacfb5cdd50088f6fd9916724a188cede636",
        "l10n\/tr.json": "ccd8d8c70233f617390bde410b102d467cc458ac5951d1377252ee571cc1e26fef9106c1b676bb56c5cfab97e4eb13c2b2e5fa62dc8d462929762666d1220547",
        "l10n\/ug.js": "7a27f945e2e03a07ffe9e90c47ac2dba97a0c6c9d5993f8a54487347aab7bde62be696076422ca2b2416f87584977455f10b674acae286c8d489f53fcc8e2f82",
        "l10n\/ug.json": "f2b063371993f3d5bd70099753d27a70c2d566575a57dedeb9bee42560d3995ab6e988f870baf16b3ab4ae03f91b075d736f221ba2ed5199dd7eebb9384b0280",
        "l10n\/uk.js": "592d04c34bb89a8776fba53e45df6ee98213517f0d0a891399f02ff6d0a0365845ad80775ace58e9a7f187077afe0162eb7dde8e1da13837ad1bb0c447525c8a",
        "l10n\/uk.json": "37d86e92b4b66c449f97c5959f243872124788e88ec11fc9a4b827ea8d124ab2d65226c95fc28963d606e957ceec448cad53deadd664b7ad30d87a6b01826dfe",
        "l10n\/ur_PK.js": "743e97bf01411fef55caa9d798c47f2caabdc405f8a771ad8d37d6ed4fed52ba43de8450d54aa2a50f4a55675c10c00becd7b0779fd1488ac6c00bbdb3813d4d",
        "l10n\/ur_PK.json": "b389a79b7a00efd2fa4b098017dc178a87674ea7695d94a7b49464e2f91406986c1f256dea6d234e008e7c22a59d25e6d1228a994b4434985b1d41a067a39a4e",
        "l10n\/vi.js": "76a9935b595e20b4d8e21e4a74007021e291b6010a472faf106f5b6c98a7138a978ee313abd7e797bbd1334c9e31ce11bcc0483ac0c9a575922c7762784583e5",
        "l10n\/vi.json": "36336a2f48a3dbdd53976ea36ec5a61715b06de63c196d5ac01b637e83d7ff224c7b049ff3b25b80568d622d40da2ac48ce113e73aefa20160d431bf65245cf2",
        "l10n\/zh_CN.js": "0b9a8710e4089cbcb6be7802153df1f45051ad2e66ab8c4be1783f6c8725e83d34fcd37b0e730b351b65ccac5aeb08736f29aef6bc4fa5aca5263fb3a5b96df5",
        "l10n\/zh_CN.json": "7542631270470a6ecf6b81badb5b289bc56c675798b1c16d6fe57b980c813df5bd8c9ef159bca1b8e32b2d593541b4eee2cffadeab8fd94477e0f22f09faf0b9",
        "l10n\/zh_HK.js": "7ac30e1dddd2fee8f40a306ccc86fb0248df16fc9c4e5f2c33f225cee80a0a494c624819f5cc9f55078bfe7f6902752d1ffeba4b142b6d0d2491c26cbf6a20f1",
        "l10n\/zh_HK.json": "e9deaf5bc9e1008314ca1fb6ba92a20498b50dcc9ab535a21c8efea13e0114d06c8b959d5bcbed86c0b12ea078893adc13e37521003776d06bbaaeddd8394cdc",
        "l10n\/zh_TW.js": "868427ccc10903bdc5050be1b3ce1496cc6c1b96eb25bcc3be660c5d16d9d18ae4796ce47c87730d91cfb86e438adc86b24a37c5d42feae0eb53c9b503277af4",
        "l10n\/zh_TW.json": "d3867c0c47c25a1006d2d1640be33711b40ef39dc607bf801529b6be82b68fea269fc02b73859372cd69130090d55257ffa13fe84b76a9b08352265fe0bc402c",
        "lib\/Activity\/Listener.php": "b4e5d50ebe30cd1f653487b8423000deb5d17406a1694e2b4f7d703b98442cc390503f79810009e6b1cb2517549ed86d93ee0f0f188befffe6d49927b9ddafc1",
        "lib\/Activity\/Provider.php": "402efa5c50547c800781c1d335a49ee6d9799fcc665f2473405cb610d633491cc75416ea87cc700e7fd8f7d0efe89d99ea8c11d76f51bf6ea653b23d14b8fb30",
        "lib\/Activity\/Setting.php": "e22299671c37c1341a7998bba9a45a212dd86da266e5c1f1705678f75c7dcc2590743bc4f797cb37190199fdef879eed2f321ee1bb301e32965371ecf5591127",
        "lib\/AppInfo\/Application.php": "c0387ecffba1e0c4704bd675a1a909de31a82782ca6c6a619f4c7f65fc4594c3e6a367f55e3b99e11feb08857fbc8dd60cb32d776ecf1f6ec7ad95b164d6e143",
        "lib\/Controller\/LastUsedController.php": "af2f398107c045e02c6ab6d2bd58cf1d0846738e18743155b8fad2ec6ee0216ac6725f2ce72047a10acbde7ccc37fe703f22ae507e35639d8de6b085661f36b7",
        "lib\/Settings\/Admin.php": "b71a40dd1e912111d05ac77cb3d4e0463dea5d190ec483c7561e310024b55b3732925900c291d5d62516656eac187efd89dbc22fd16a433e4d39485fad2bb293",
        "list.php": "f8798d659926b213154956690adabe7c8ccdd434e7532f3fe471e1c9b146451c378d3a305d7679692c6e2cd08918d2972271fa7a3c895fc557fc9decbea65b18",
        "templates\/admin.php": "7b8b98d6d7b80518a4666bb7b3c575d8acec44ad182a01e8c1c69c05bcee9f6d32c33e2e6fdbaca06cc91bc4d4e6130a1b401e0751301ea5bba90e0ccdc09c42",
        "templates\/list.php": "2fa59ac5a1025ce737e684425c7a28c80caef243c09cce1748c44c03d24a5c41c172a75bfa5d6d7bca3e049fddc51d4a0256e6c5203762d4677793727ce5bc41"
    },
    "signature": "vXnSfs7ghXVeyWFst8poSMtRICc6V7mXBOjdzsrAloMOtWztf\/Cp6hbCBartZycI4skvUs+zq+WAzOKKAe7D9DlNpunAF63ZGwYrEVgIHFqNhIcehWhgyACWHOB8z04mkMAYIZaIZgJCNMxoY0AxXNiB\/uPBjAifNbvhzfymxmUehLzzhJpUVx54h+rFeQFtaYUgUaN70BQ2i0sUeh6RopjZu+ihRJe7bldIUUS9TmZmUlYy\/8Kz97iL+hhj7QmX\/Tn3E\/TJ5GaDiPF6oDVniKO5CouhNFxyxpKUhsHh3EHxd3vvJW5ZahRjC90mmkYrdc20X4\/M3AJUaNyB5fgJKQ==",
    "certificate": "-----BEGIN CERTIFICATE-----\r\nMIIEojCCA4qgAwIBAgICEAAwDQYJKoZIhvcNAQELBQAwezELMAkGA1UEBhMCREUx\r\nGzAZBgNVBAgMEkJhZGVuLVd1ZXJ0dGVtYmVyZzEXMBUGA1UECgwOTmV4dGNsb3Vk\r\nIEdtYkgxNjA0BgNVBAMMLU5leHRjbG91ZCBDb2RlIFNpZ25pbmcgSW50ZXJtZWRp\r\nYXRlIEF1dGhvcml0eTAeFw0xNjA2MTIyMTA1MDZaFw00MTA2MDYyMTA1MDZaMGYx\r\nCzAJBgNVBAYTAkRFMRswGQYDVQQIDBJCYWRlbi1XdWVydHRlbWJlcmcxEjAQBgNV\r\nBAcMCVN0dXR0Z2FydDEXMBUGA1UECgwOTmV4dGNsb3VkIEdtYkgxDTALBgNVBAMM\r\nBGNvcmUwggEiMA0GCSqGSIb3DQEBAQUAA4IBDwAwggEKAoIBAQDUxcrn2DC892IX\r\n8+dJjZVh9YeHF65n2ha886oeAizOuHBdWBfzqt+GoUYTOjqZF93HZMcwy0P+xyCf\r\nQqak5Ke9dybN06RXUuGP45k9UYBp03qzlUzCDalrkj+Jd30LqcSC1sjRTsfuhc+u\r\nvH1IBuBnf7SMUJUcoEffbmmpAPlEcLHxlUGlGnz0q1e8UFzjbEFj3JucMO4ys35F\r\nqZS4dhvCngQhRW3DaMlQLXEUL9k3kFV+BzlkPzVZEtSmk4HJujFCnZj1vMcjQBg\/\r\nBqq1HCmUB6tulnGcxUzt\/Z\/oSIgnuGyENeke077W3EyryINL7EIyD4Xp7sxLizTM\r\nFCFCjjH1AgMBAAGjggFDMIIBPzAJBgNVHRMEAjAAMBEGCWCGSAGG+EIBAQQEAwIG\r\nQDAzBglghkgBhvhCAQ0EJhYkT3BlblNTTCBHZW5lcmF0ZWQgU2VydmVyIENlcnRp\r\nZmljYXRlMB0GA1UdDgQWBBQwc1H9AL8pRlW2e5SLCfPPqtqc0DCBpQYDVR0jBIGd\r\nMIGagBRt6m6qqTcsPIktFz79Ru7DnnjtdKF+pHwwejELMAkGA1UEBhMCREUxGzAZ\r\nBgNVBAgMEkJhZGVuLVd1ZXJ0dGVtYmVyZzESMBAGA1UEBwwJU3R1dHRnYXJ0MRcw\r\nFQYDVQQKDA5OZXh0Y2xvdWQgR21iSDEhMB8GA1UEAwwYTmV4dGNsb3VkIFJvb3Qg\r\nQXV0aG9yaXR5ggIQADAOBgNVHQ8BAf8EBAMCBaAwEwYDVR0lBAwwCgYIKwYBBQUH\r\nAwEwDQYJKoZIhvcNAQELBQADggEBADZ6+HV\/+0NEH3nahTBFxO6nKyR\/VWigACH0\r\nnaV0ecTcoQwDjKDNNFr+4S1WlHdwITlnNabC7v9rZ\/6QvbkrOTuO9fOR6azp1EwW\r\n2pixWqj0Sb9\/dSIVRpSq+jpBE6JAiX44dSR7zoBxRB8DgVO2Afy0s80xEpr5JAzb\r\nNYuPS7M5UHdAv2dr16fDcDIvn+vk92KpNh1NTeZFjBbRVQ9DXrgkRGW34TK8uSLI\r\nYG6jnfJ6eJgTaO431ywWPXNg1mUMaT\/+QBOgB299QVCKQU+lcZWptQt+RdsJUm46\r\nNY\/nARy4Oi4uOe88SuWITj9KhrFmEvrUlgM8FvoXA1ldrR7KiEg=\r\n-----END CERTIFICATE-----"
}